tarea_jonathan_ulloa
…
unique(books$price)

## [1] 19.99 15.99 50.00 29.99 39.99

Depurando

Solo seleccionare las filas con review no NA

antes de depurar, tenemos los siguientes valores en NA

filter(books, is.na(review) )

## # A tibble: 206 x 4
##    book                               review state      price
##    <chr>                              <chr>  <chr>      <dbl>
##  1 R Made Easy                        <NA>   California  20.0
##  2 R For Dummies                      <NA>   TX          16.0
##  3 R For Dummies                      <NA>   Florida     16.0
##  4 Secrets Of R For Advanced Students <NA>   Texas       50  
##  5 Fundamentals of R For Beginners    <NA>   Texas       40.0
##  6 R Made Easy                        <NA>   New York    20.0
##  7 Secrets Of R For Advanced Students <NA>   New York    50  
##  8 R Made Easy                        <NA>   New York    20.0
##  9 R Made Easy                        <NA>   Florida     20.0
## 10 R Made Easy                        <NA>   CA          20.0
## # ... with 196 more rows
…
